0;4369
32;4236
37;4203
33;4149
31;4130
35;4098
39;4083
38;4077
34;4022
36;4003
29;3435
28;3394
30;3392
49;2857
19;2846
12;2820
50;2809
51;2800
20;2771
21;2723
11;2711
42;2710
10;2701
41;2693
40;2560
52;1658
3;1652
53;1637
1;1635
2;1592
54;1591
7;1588
9;1525
55;1490
8;1487
57;1485
14;1476
56;1443
6;1441
5;1437
13;1429
4;1419
15;1413
17;1353
18;1352
16;1350
25;1348
48;1323
44;1315
46;1315
47;1313
27;1313
26;1300
43;1294
22;1283
23;1280
24;1260
45;1259
